{
  "count": 2688,
  "next": "https://api.ukhsa-dashboard.data.gov.uk/themes/infectious_disease/sub_themes/respiratory/topics/Adenovirus/geography_types/Nation/geographies/England/metrics/adenovirus_testing_positivityByWeek?format=json&page=2",
  "previous": null,
  "results": [
    {
      "theme": "infectious_disease",
      "sub_theme": "respiratory",
      "topic": "Adenovirus",
      "geography_type": "Nation",
      "geography": "England",
      "geography_code": "E92000001",
      "metric": "adenovirus_testing_positivityByWeek",
      "metric_group": "testing",
      "stratum": "default",
      "sex": "all",
      "age": "45-64",
      "year": 2017,
      "month": 7,
      "epiweek": 27,
      "date": "2017-07-03",
      "metric_value": 3.24,
      "in_reporting_delay_period": false
    },
    {
      "theme": "infectious_disease",
      "sub_theme": "respiratory",
      "topic": "Adenovirus",
      "geography_type": "Nation",
      "geography": "England",
      "geography_code": "E92000001",
      "metric": "adenovirus_testing_positivityByWeek",
      "metric_group": "testing",
      "stratum": "default",
      "sex": "all",
      "age": "all",
      "year": 2017,
      "month": 7,
      "epiweek": 27,
      "date": "2017-07-03",
      "metric_value": 4.64,
      "in_reporting_delay_period": false
    },
    {
      "theme": "infectious_disease",
      "sub_theme": "respiratory",
      "topic": "Adenovirus",
      "geography_type": "Nation",
      "geography": "England",
      "geography_code": "E92000001",
      "metric": "adenovirus_testing_positivityByWeek",
      "metric_group": "testing",
      "stratum": "default",
      "sex": "all",
      "age": "15-44",
      "year": 2017,
      "month": 7,
      "epiweek": 27,
      "date": "2017-07-03",
      "metric_value": 3.6,
      "in_reporting_delay_period": false
    },
    {
      "theme": "infectious_disease",
      "sub_theme": "respiratory",
      "topic": "Adenovirus",
      "geography_type": "Nation",
      "geography": "England",
      "geography_code": "E92000001",
      "metric": "adenovirus_testing_positivityByWeek",
      "metric_group": "testing",
      "stratum": "default",
      "sex": "all",
      "age": "80+",
      "year": 2017,
      "month": 7,
      "epiweek": 27,
      "date": "2017-07-03",
      "metric_value": 0.0,
      "in_reporting_delay_period": false
    },
    {
      "theme": "infectious_disease",
      "sub_theme": "respiratory",
      "topic": "Adenovirus",
      "geography_type": "Nation",
      "geography": "England",
      "geography_code": "E92000001",
      "metric": "adenovirus_testing_positivityByWeek",
      "metric_group": "testing",
      "stratum": "default",
      "sex": "all",
      "age": "00-04",
      "year": 2017,
      "month": 7,
      "epiweek": 27,
      "date": "2017-07-03",
      "metric_value": 7.66,
      "in_reporting_delay_period": false
    }
  ]
}