{
  "count": 3240,
  "next": "https://api.ukhsa-dashboard.data.gov.uk/themes/infectious_disease/sub_themes/respiratory/topics/Influenza/geography_types/Nation/geographies/England/metrics/influenza_testing_positivityByWeek?format=json&page=2",
  "previous": null,
  "results": [
    {
      "theme": "infectious_disease",
      "sub_theme": "respiratory",
      "topic": "Influenza",
      "geography_type": "Nation",
      "geography": "England",
      "geography_code": "E92000001",
      "metric": "influenza_testing_positivityByWeek",
      "metric_group": "testing",
      "stratum": "default",
      "sex": "all",
      "age": "00-04",
      "year": 2017,
      "month": 7,
      "epiweek": 27,
      "date": "2017-07-03",
      "metric_value": 0.35,
      "in_reporting_delay_period": false
    },
    {
      "theme": "infectious_disease",
      "sub_theme": "respiratory",
      "topic": "Influenza",
      "geography_type": "Nation",
      "geography": "England",
      "geography_code": "E92000001",
      "metric": "influenza_testing_positivityByWeek",
      "metric_group": "testing",
      "stratum": "default",
      "sex": "all",
      "age": "05-14",
      "year": 2017,
      "month": 7,
      "epiweek": 27,
      "date": "2017-07-03",
      "metric_value": 0.0,
      "in_reporting_delay_period": false
    },
    {
      "theme": "infectious_disease",
      "sub_theme": "respiratory",
      "topic": "Influenza",
      "geography_type": "Nation",
      "geography": "England",
      "geography_code": "E92000001",
      "metric": "influenza_testing_positivityByWeek",
      "metric_group": "testing",
      "stratum": "default",
      "sex": "all",
      "age": "all",
      "year": 2017,
      "month": 7,
      "epiweek": 27,
      "date": "2017-07-03",
      "metric_value": 1.71,
      "in_reporting_delay_period": false
    },
    {
      "theme": "infectious_disease",
      "sub_theme": "respiratory",
      "topic": "Influenza",
      "geography_type": "Nation",
      "geography": "England",
      "geography_code": "E92000001",
      "metric": "influenza_testing_positivityByWeek",
      "metric_group": "testing",
      "stratum": "default",
      "sex": "all",
      "age": "65-79",
      "year": 2017,
      "month": 7,
      "epiweek": 27,
      "date": "2017-07-03",
      "metric_value": 1.76,
      "in_reporting_delay_period": false
    },
    {
      "theme": "infectious_disease",
      "sub_theme": "respiratory",
      "topic": "Influenza",
      "geography_type": "Nation",
      "geography": "England",
      "geography_code": "E92000001",
      "metric": "influenza_testing_positivityByWeek",
      "metric_group": "testing",
      "stratum": "default",
      "sex": "all",
      "age": "15-44",
      "year": 2017,
      "month": 7,
      "epiweek": 27,
      "date": "2017-07-03",
      "metric_value": 3.59,
      "in_reporting_delay_period": false
    }
  ]
}