{
  "count": 2688,
  "next": "https://api.ukhsa-dashboard.data.gov.uk/themes/infectious_disease/sub_themes/respiratory/topics/Rhinovirus/geography_types/Nation/geographies/England/metrics/rhinovirus_testing_positivityByWeek?format=json&page=2",
  "previous": null,
  "results": [
    {
      "theme": "infectious_disease",
      "sub_theme": "respiratory",
      "topic": "Rhinovirus",
      "geography_type": "Nation",
      "geography": "England",
      "geography_code": "E92000001",
      "metric": "rhinovirus_testing_positivityByWeek",
      "metric_group": "testing",
      "stratum": "default",
      "sex": "all",
      "age": "45-64",
      "year": 2017,
      "month": 7,
      "epiweek": 27,
      "date": "2017-07-03",
      "metric_value": 12.57,
      "in_reporting_delay_period": false
    },
    {
      "theme": "infectious_disease",
      "sub_theme": "respiratory",
      "topic": "Rhinovirus",
      "geography_type": "Nation",
      "geography": "England",
      "geography_code": "E92000001",
      "metric": "rhinovirus_testing_positivityByWeek",
      "metric_group": "testing",
      "stratum": "default",
      "sex": "all",
      "age": "all",
      "year": 2017,
      "month": 7,
      "epiweek": 27,
      "date": "2017-07-03",
      "metric_value": 16.9,
      "in_reporting_delay_period": false
    },
    {
      "theme": "infectious_disease",
      "sub_theme": "respiratory",
      "topic": "Rhinovirus",
      "geography_type": "Nation",
      "geography": "England",
      "geography_code": "E92000001",
      "metric": "rhinovirus_testing_positivityByWeek",
      "metric_group": "testing",
      "stratum": "default",
      "sex": "all",
      "age": "15-44",
      "year": 2017,
      "month": 7,
      "epiweek": 27,
      "date": "2017-07-03",
      "metric_value": 14.29,
      "in_reporting_delay_period": false
    },
    {
      "theme": "infectious_disease",
      "sub_theme": "respiratory",
      "topic": "Rhinovirus",
      "geography_type": "Nation",
      "geography": "England",
      "geography_code": "E92000001",
      "metric": "rhinovirus_testing_positivityByWeek",
      "metric_group": "testing",
      "stratum": "default",
      "sex": "all",
      "age": "80+",
      "year": 2017,
      "month": 7,
      "epiweek": 27,
      "date": "2017-07-03",
      "metric_value": 18.18,
      "in_reporting_delay_period": false
    },
    {
      "theme": "infectious_disease",
      "sub_theme": "respiratory",
      "topic": "Rhinovirus",
      "geography_type": "Nation",
      "geography": "England",
      "geography_code": "E92000001",
      "metric": "rhinovirus_testing_positivityByWeek",
      "metric_group": "testing",
      "stratum": "default",
      "sex": "all",
      "age": "00-04",
      "year": 2017,
      "month": 7,
      "epiweek": 27,
      "date": "2017-07-03",
      "metric_value": 28.7,
      "in_reporting_delay_period": false
    }
  ]
}